<?xml version="1.0" encoding="UTF-8" standalone="no"?>
<svg width="52px" height="51px" viewBox="0 0 52 51" version="1.1" xmlns="http://www.w3.org/2000/svg" xmlns:xlink="http://www.w3.org/1999/xlink" xmlns:sketch="http://www.bohemiancoding.com/sketch/ns">
    <!-- Generator: Sketch 3.4.4 (17249) - http://www.bohemiancoding.com/sketch -->
    <title>Shape</title>
    <desc>Created with Sketch.</desc>
    <defs></defs>
    <g id="Page-1" stroke="none" stroke-width="1" fill="none" fill-rule="evenodd" sketch:type="MSPage">
        <path d="M26,0 C4.05535889,0 -7.34108129e-09,6.5357607 0,24.6774194 C6.34595749e-09,40.3598712 4.02302551,51 26,51 C47.9769745,51 52,40.3325589 52,24.6774194 C52,8.51388916 48.7714088,1.54810857 32.4872249,0.234756804 C31.9170877,7.93142752 30.6943862,14.6672088 29.0107016,20.4557668 C28.1672606,23.3555423 27.2605298,25.8347395 26.3496769,27.8978271 C25.7933464,29.1579187 25.3511578,30.0112792 25.0822694,30.4626067 C24.6223496,31.2345795 23.6344155,31.4880161 22.8668818,31.0309241 L17.0510922,27.5674265 C16.2775384,27.1067494 16.0193253,26.0984272 16.4743569,25.3152759 C16.9293886,24.5321246 17.9253539,24.2707077 18.6989078,24.731385 L23.0223044,27.3003996 C23.0223044,27.3003996 23.088026,27.2223279 23.3825853,26.5551492 C24.2347448,24.6250029 25.0910265,22.2837443 25.8930638,19.5263163 C27.5076855,13.9751986 28.6866906,7.48966929 29.2415742,0.0526074907 C28.2069904,0.0173104325 27.1270904,0 26,0 L26,0 Z M36.5625,17.2741935 C37.9086941,17.2741935 39,16.1693478 39,14.8064516 C39,13.4435554 37.9086941,12.3387097 36.5625,12.3387097 C35.2163059,12.3387097 34.125,13.4435554 34.125,14.8064516 C34.125,16.1693478 35.2163059,17.2741935 36.5625,17.2741935 L36.5625,17.2741935 L36.5625,17.2741935 Z M15.4375,17.2741935 C16.7836941,17.2741935 17.875,16.1693478 17.875,14.8064516 C17.875,13.4435554 16.7836941,12.3387097 15.4375,12.3387097 C14.0913059,12.3387097 13,13.4435554 13,14.8064516 C13,16.1693478 14.0913059,17.2741935 15.4375,17.2741935 L15.4375,17.2741935 L15.4375,17.2741935 Z M14.8873136,36.5716769 C15.0207892,36.7796824 15.2519756,37.081909 15.5897256,37.4453624 C16.1223937,38.0185677 16.7781229,38.5841682 17.5648762,39.1071172 C19.7605434,40.5665603 22.5606894,41.4334834 25.9861408,41.4334834 C29.4088692,41.4334836 32.211599,40.5732179 34.4144029,39.1250731 C35.2036511,38.6062136 35.8623693,38.045005 36.3982588,37.4762214 C36.7380779,37.1155435 36.9710451,36.8156187 37.1057484,36.6092373 C37.6005201,35.8511883 37.3946226,34.8306002 36.6458634,34.3296899 C35.8971042,33.8287796 34.8890233,34.0372317 34.3942516,34.7952807 C34.3976069,34.7901399 34.3811398,34.8133139 34.3441957,34.8608761 C34.2671134,34.9601127 34.1681123,35.0761617 34.0465449,35.2051912 C33.6801475,35.5940787 33.2148001,35.9905411 32.6444301,36.365508 C30.9626102,37.4711529 28.7732199,38.143161 25.986141,38.1431609 C23.2017851,38.1431609 21.0202053,37.4677453 19.3485727,36.356624 C18.7817712,35.9798754 18.3199311,35.5815143 17.956809,35.1907578 C17.8363316,35.0611119 17.7382984,34.9445155 17.662041,34.8448254 C17.6255258,34.7970897 17.6092998,34.7738834 17.6126864,34.7791611 C17.1237629,34.0172328 16.1173165,33.8008362 15.3647256,34.2958258 C14.6121347,34.7908153 14.39839,35.8097486 14.8873136,36.5716769 L14.8873136,36.5716769 L14.8873136,36.5716769 Z" id="Shape" fill="#000000" sketch:type="MSShapeGroup"></path>
    </g>
</svg>