<?xml version="1.0" encoding="UTF-8"?>
<svg width="89px" height="46px" viewBox="0 0 89 46" version="1.1" xmlns="http://www.w3.org/2000/svg" xmlns:xlink="http://www.w3.org/1999/xlink">
    <!-- Generator: Sketch 48.2 (47327) - http://www.bohemiancoding.com/sketch -->
    <title>Get-free</title>
    <desc>Created with Sketch.</desc>
    <defs></defs>
    <g id="Buy-AC---bucket-monthly-hover" stroke="none" stroke-width="1" fill="none" fill-rule="evenodd" transform="translate(-317.000000, -131.000000)">
        <g id="switch" transform="translate(316.000000, 126.000000)">
            <g id="Monthly-Current">
                <g id="Get-free">
                    <g id="arrow" transform="translate(72.000000, 29.000000)" stroke="#2862CA">
                        <path d="M8.08033587,15.5913902 C14.1312557,23.2441449 11.1256265,23.156605 17.0803359,15" id="Path-7"></path>
                        <path d="M0.316941553,0.89507882 C10.8418651,3.92793418 12.4685269,12.113833 13.1134113,22.0068234" id="Path-5"></path>
                    </g>
                    <text id="Get-2-Months-for-FRE" transform="translate(47.979013, 22.980441) rotate(-5.000000) translate(-47.979013, -22.980441) " font-family="BradleyHandITCTT-Bold, Bradley Hand" font-size="15" font-style="expanded" font-weight="bold" fill="#2862CA">
                        <tspan x="1.47901257" y="16.9804413">Get 2 Months </tspan>
                        <tspan x="1.47901257" y="35.9804413">for FREE</tspan>
                    </text>
                </g>
            </g>
        </g>
    </g>
</svg>